{
  "project_info": {
    "project_number": "687311984588",
    "firebase_url": "https://qr-scanner-65274.firebaseio.com",
    "project_id": "qr-scanner-65274",
    "storage_bucket": "qr-scanner-65274.appspot.com"
  },
  "client": [
    {
      "client_info": {
        "mobilesdk_app_id": "1:687311984588:android:16de45548af0f6411d6f69",
        "android_client_info": {
          "package_name": "com.otoniel.qrscanner"
        }
      },
      "oauth_client": [
        {
          "client_id": "687311984588-eeob9uo18dh0qam2acc8p6500i5pdqcu.apps.googleusercontent.com",
          "client_type": 3
        }
      ],
      "api_key": [
        {
          "current_key": "AIzaSyCku22kBr8_tqoFyR-zKlz28Xqz2F7Hmic"
        }
      ],
      "services": {
        "appinvite_service": {
          "other_platform_oauth_client": [
            {
              "client_id": "687311984588-eeob9uo18dh0qam2acc8p6500i5pdqcu.apps.googleusercontent.com",
              "client_type": 3
            }
          ]
        }
      }
    }
  ],
  "configuration_version": "1"
}